[
    {
      "from" : {
        "name" : "Now TV",
        "email" : "nowtv@test.com"
      },
      "subject" : "Grab another Pass, you need to be watching this tomorow in the morning and night.",
      "body" : "Oscar winners Sir Anthony Hopkins and Ed Harris join an impressive cast boasting the likes of Thandie Newton, James Marsden and Jeffrey Wright.",
      "imageprofileurl" : "",
      "color" : "rgb(135, 100, 184)",
      "label" : "NT",
      "datetime" : "2019-08-25T11:15:00.00"
    },
    {
      "from" : {
        "name" : "Investopedia Terms",
        "email" : "investopedia@test.com"
      },
      "subject" : "What is 'Fibonanci Retracement'?",
      "body" : "Fibonacci retracement is a term used in technical analysis that refers to areas of support (price stops going lower) or resistance (price stops going higher).",
      "imageprofileurl" : "",
      "color" : "rgb(11, 106, 11)",
      "label" : "IT",
      "datetime" : "2019-08-25T11:09:00.00"
    },
    {
      "from" : {
        "name" : "ASICS Greater Manchester Marathon ",
        "email" : "events@human-race.co.uk"
      },
      "subject" : "Your chance to take on the marathon",
      "body" : "Do you feel inspired to take on one of Europe's most highly regarded and popular marathons?",
      "imageprofileurl" : "",
      "color" : "rgb(136, 23, 152)",
      "label" : "AM",
      "datetime" : "2019-08-25T11:41:00.00"
    },
    {
      "from" : {
        "name" : "ClassDojo ",
        "email" : "classdojo@test.com"
      },
      "subject" : "Mr Caines share 4 new photos!",
      "body" : "Mr Caines share 4 new photos! View now Cheers Sent with love and like this country in Europe",
      "imageprofileurl" : "",
      "color" : "rgb(227, 0, 140)",
      "label" : "C",
      "datetime" : "2019-08-25T09:49:00.00"
    },
    {
      "from" : {
        "name" : "Twitter ",
        "email" : "twitter@test.com"
      },
      "subject" : "Follow SeeKo Manchester United and ThaiPBS , Youtube , live in Facebook and chanel online.",
      "body" : "Manchester United and ThaiPBS also Tweeted 36 Who to follow in the world with their love teams of football",
      "imageprofileurl" : "../../../../assets/images/twitter.jpg",
      "color" : "rgb(136, 23, 152)",
      "label" : "T",
      "datetime" : "2019-08-25T09:30:00.00"
    },
    {
      "from" : {
        "name" : "Now TV",
        "email" : "nowtv@test.com"
      },
      "subject" : "Grab another Pass, you need to be watching this tomorow in the morning and night.",
      "body" : "Oscar winners Sir Anthony Hopkins and Ed Harris join an impressive cast boasting the likes of Thandie Newton, James Marsden and Jeffrey Wright.",
      "imageprofileurl" : "",
      "color" : "rgb(135, 100, 184)",
      "label" : "NT",
      "datetime" : "2019-08-25T11:15:00.00"
    },
    {
      "from" : {
        "name" : "Investopedia Terms",
        "email" : "investopedia@test.com"
      },
      "subject" : "What is 'Fibonanci Retracement'?",
      "body" : "Fibonacci retracement is a term used in technical analysis that refers to areas of support (price stops going lower) or resistance (price stops going higher).",
      "imageprofileurl" : "",
      "color" : "rgb(11, 106, 11)",
      "label" : "IT",
      "datetime" : "2019-08-25T11:09:00.00"
    },
    {
      "from" : {
        "name" : "ASICS Greater Manchester Marathon ",
        "email" : "events@human-race.co.uk"
      },
      "subject" : "Your chance to take on the marathon",
      "body" : "Do you feel inspired to take on one of Europe's most highly regarded and popular marathons?",
      "imageprofileurl" : "",
      "color" : "rgb(136, 23, 152)",
      "label" : "AM",
      "datetime" : "2019-08-25T11:41:00.00"
    },
    {
      "from" : {
        "name" : "ClassDojo ",
        "email" : "classdojo@test.com"
      },
      "subject" : "Mr Caines share 4 new photos!",
      "body" : "Mr Caines share 4 new photos! View now Cheers Sent with love and like this country in Europe",
      "imageprofileurl" : "",
      "color" : "rgb(227, 0, 140)",
      "label" : "C",
      "datetime" : "2019-08-25T09:49:00.00"
    },
    {
      "from" : {
        "name" : "Twitter ",
        "email" : "twitter@test.com"
      },
      "subject" : "Follow SeeKo Manchester United and ThaiPBS , Youtube , live in Facebook and chanel online.",
      "body" : "Manchester United and ThaiPBS also Tweeted 36 Who to follow in the world with their love teams of football",
      "imageprofileurl" : "../../../../assets/images/twitter.jpg",
      "color" : "rgb(136, 23, 152)",
      "label" : "T",
      "datetime" : "2019-08-25T09:30:00.00"
    }


  ]
  